{
	"type": "minecraft:crafting_shaped",
	"pattern": ["#n#", "#D#", "# #"],
	"key": {
		"#": {
			"item": "minecraft:phantom_membrane"
		},
		"n": {
			"item": "minecraft:netherite_ingot"
		},
		"D": {
			"item": "minecraft:diamond"
		}
	},
	"result": {
		"item": "minecraft:elytra",
		"count": 1
	},
	"group": "machape"
}
